%YAML 1.1
%TAG !u! tag:unity3d.com,2011:
--- !u!1045 &1
EditorBuildSettings:
  m_ObjectHideFlags: 0
  serializedVersion: 2
  m_Scenes:
  - enabled: 1
    path: Assets/Scenes/Start.unity
    guid: 0b66fd9e664b6a448a1448b2ab0d4f20
  - enabled: 1
    path: Assets/Scenes/Levels/L1.unity
    guid: 3d383003d708d5c48a8c9ae411694a7e
  - enabled: 1
    path: Assets/Scenes/Levels/L2.unity
    guid: 95374acfd81f30345ade1ba599449c49
  - enabled: 1
    path: Assets/Scenes/Levels/L3.unity
    guid: 628a85054f747b24dbc6b33586a8decf
  - enabled: 1
    path: Assets/Scenes/Levels/L4.unity
    guid: 80732412ca8d65e49a678fc474fd5e7e
  - enabled: 1
    path: Assets/Scenes/Levels/L5.unity
    guid: cd8b37bd1b5517c4aba163a1f107a1b0
  - enabled: 1
    path: Assets/Scenes/Levels/L6.unity
    guid: 8c6b711b3d27d634d96b10ef3a5df974
  - enabled: 1
    path: Assets/Scenes/Levels/L7.unity
    guid: bf65fb5e583a47147836207cab246e2f
  - enabled: 1
    path: Assets/Scenes/Levels/L8.unity
    guid: d7f46afaa81d34f4fa2d3fd759a62ca5
  - enabled: 1
    path: Assets/Scenes/End.unity
    guid: 706acec1583db8640a432f26be3b1d4b
  m_configObjects: {}
